Basils_Servo_Code/simulation/qsim/Sensors.msim.vcd
$comment
	File created using the following command:
		vcd file Sensors.msim.vcd -direction
$end
$date
	Mon Mar 24 10:09:59 2025
$end
$version
	ModelSim Version 2020.1
$end
$timescale
	1ps
$end

$scope module line_sensor_servo_vlg_vec_tst $end
$var reg 1 ! clk_50MHz $end
$var reg 1 " line_sensor $end
$var reg 1 # reset $end
$var wire 1 $ led_out $end
$var wire 1 % servo_pwm $end

$scope module i1 $end
$var wire 1 & gnd $end
$var wire 1 ' vcc $end
$var wire 1 ( unknown $end
$var tri1 1 ) devclrn $end
$var tri1 1 * devpor $end
$var tri1 1 + devoe $end
$var wire 1 , ~QUARTUS_CREATED_GND~I_combout $end
$var wire 1 - ~QUARTUS_CREATED_UNVM~~busy $end
$var wire 1 . ~QUARTUS_CREATED_ADC1~~eoc $end
$var wire 1 / ~QUARTUS_CREATED_ADC2~~eoc $end
$var wire 1 0 led_out~output_o $end
$var wire 1 1 servo_pwm~output_o $end
$var wire 1 2 clk_50MHz~input_o $end
$var wire 1 3 clk_50MHz~inputclkctrl_outclk $end
$var wire 1 4 line_sensor~input_o $end
$var wire 1 5 led_reg~0_combout $end
$var wire 1 6 reset~input_o $end
$var wire 1 7 led_reg~q $end
$var wire 1 8 pwm_counter[0]~20_combout $end
$var wire 1 9 pwm_counter[17]~55 $end
$var wire 1 : pwm_counter[18]~56_combout $end
$var wire 1 ; pwm_counter[18]~57 $end
$var wire 1 < pwm_counter[19]~58_combout $end
$var wire 1 = LessThan0~1_combout $end
$var wire 1 > LessThan0~0_combout $end
$var wire 1 ? LessThan0~2_combout $end
$var wire 1 @ LessThan0~3_combout $end
$var wire 1 A LessThan0~4_combout $end
$var wire 1 B pwm_counter[0]~21 $end
$var wire 1 C pwm_counter[1]~22_combout $end
$var wire 1 D pwm_counter[1]~23 $end
$var wire 1 E pwm_counter[2]~24_combout $end
$var wire 1 F pwm_counter[2]~25 $end
$var wire 1 G pwm_counter[3]~26_combout $end
$var wire 1 H pwm_counter[3]~27 $end
$var wire 1 I pwm_counter[4]~28_combout $end
$var wire 1 J pwm_counter[4]~29 $end
$var wire 1 K pwm_counter[5]~30_combout $end
$var wire 1 L pwm_counter[5]~31 $end
$var wire 1 M pwm_counter[6]~32_combout $end
$var wire 1 N pwm_counter[6]~33 $end
$var wire 1 O pwm_counter[7]~34_combout $end
$var wire 1 P pwm_counter[7]~35 $end
$var wire 1 Q pwm_counter[8]~36_combout $end
$var wire 1 R pwm_counter[8]~37 $end
$var wire 1 S pwm_counter[9]~38_combout $end
$var wire 1 T pwm_counter[9]~39 $end
$var wire 1 U pwm_counter[10]~40_combout $end
$var wire 1 V pwm_counter[10]~41 $end
$var wire 1 W pwm_counter[11]~42_combout $end
$var wire 1 X pwm_counter[11]~43 $end
$var wire 1 Y pwm_counter[12]~44_combout $end
$var wire 1 Z pwm_counter[12]~45 $end
$var wire 1 [ pwm_counter[13]~46_combout $end
$var wire 1 \ pwm_counter[13]~47 $end
$var wire 1 ] pwm_counter[14]~48_combout $end
$var wire 1 ^ pwm_counter[14]~49 $end
$var wire 1 _ pwm_counter[15]~50_combout $end
$var wire 1 ` pwm_counter[15]~51 $end
$var wire 1 a pwm_counter[16]~52_combout $end
$var wire 1 b pwm_counter[16]~53 $end
$var wire 1 c pwm_counter[17]~54_combout $end
$var wire 1 d pulse_width[10]~feeder_combout $end
$var wire 1 e LessThan1~6_combout $end
$var wire 1 f LessThan1~4_combout $end
$var wire 1 g LessThan1~5_combout $end
$var wire 1 h LessThan1~0_combout $end
$var wire 1 i LessThan1~1_combout $end
$var wire 1 j LessThan1~2_combout $end
$var wire 1 k LessThan1~3_combout $end
$var wire 1 l LessThan1~7_combout $end
$var wire 1 m LessThan1~8_combout $end
$var wire 1 n pwm_signal~q $end
$var wire 1 o pwm_counter [19] $end
$var wire 1 p pwm_counter [18] $end
$var wire 1 q pwm_counter [17] $end
$var wire 1 r pwm_counter [16] $end
$var wire 1 s pwm_counter [15] $end
$var wire 1 t pwm_counter [14] $end
$var wire 1 u pwm_counter [13] $end
$var wire 1 v pwm_counter [12] $end
$var wire 1 w pwm_counter [11] $end
$var wire 1 x pwm_counter [10] $end
$var wire 1 y pwm_counter [9] $end
$var wire 1 z pwm_counter [8] $end
$var wire 1 { pwm_counter [7] $end
$var wire 1 | pwm_counter [6] $end
$var wire 1 } pwm_counter [5] $end
$var wire 1 ~ pwm_counter [4] $end
$var wire 1 !! pwm_counter [3] $end
$var wire 1 "! pwm_counter [2] $end
$var wire 1 #! pwm_counter [1] $end
$var wire 1 $! pwm_counter [0] $end
$var wire 1 %! pulse_width [31] $end
$var wire 1 &! pulse_width [30] $end
$var wire 1 '! pulse_width [29] $end
$var wire 1 (! pulse_width [28] $end
$var wire 1 )! pulse_width [27] $end
$var wire 1 *! pulse_width [26] $end
$var wire 1 +! pulse_width [25] $end
$var wire 1 ,! pulse_width [24] $end
$var wire 1 -! pulse_width [23] $end
$var wire 1 .! pulse_width [22] $end
$var wire 1 /! pulse_width [21] $end
$var wire 1 0! pulse_width [20] $end
$var wire 1 1! pulse_width [19] $end
$var wire 1 2! pulse_width [18] $end
$var wire 1 3! pulse_width [17] $end
$var wire 1 4! pulse_width [16] $end
$var wire 1 5! pulse_width [15] $end
$var wire 1 6! pulse_width [14] $end
$var wire 1 7! pulse_width [13] $end
$var wire 1 8! pulse_width [12] $end
$var wire 1 9! pulse_width [11] $end
$var wire 1 :! pulse_width [10] $end
$var wire 1 ;! pulse_width [9] $end
$var wire 1 <! pulse_width [8] $end
$var wire 1 =! pulse_width [7] $end
$var wire 1 >! pulse_width [6] $end
$var wire 1 ?! pulse_width [5] $end
$var wire 1 @! pulse_width [4] $end
$var wire 1 A! pulse_width [3] $end
$var wire 1 B! pulse_width [2] $end
$var wire 1 C! pulse_width [1] $end
$var wire 1 D! pulse_width [0] $end
$upscope $end
$upscope $end
$enddefinitions $end
#0
$dumpvars
0!
0"
1#
0$
0%
0&
1'
x(
1)
1*
1+
0,
z-
z.
z/
00
01
02
03
04
15
16
07
18
19
0:
0;
0<
1=
1>
1?
1@
0A
0B
0C
1D
0E
0F
0G
1H
0I
0J
0K
1L
0M
0N
0O
1P
0Q
0R
0S
1T
0U
0V
0W
1X
0Y
0Z
0[
1\
0]
0^
0_
1`
0a
0b
0c
0d
0e
1f
1g
1h
1i
1j
1k
1l
1m
0n
0$!
0#!
0"!
0!!
0~
0}
0|
0{
0z
0y
0x
0w
0v
0u
0t
0s
0r
0q
0p
0o
zD!
zC!
zB!
zA!
z@!
z?!
z>!
z=!
z<!
z;!
0:!
z9!
z8!
z7!
z6!
z5!
z4!
z3!
z2!
z1!
z0!
z/!
z.!
z-!
z,!
z+!
z*!
z)!
z(!
z'!
z&!
z%!
$end
#20000
1!
12
13
#40000
1"
0!
02
14
03
1d
05
#60000
1!
12
13
#80000
0"
0!
02
04
03
0d
15
#100000
0#
1!
12
06
13
1$!
1n
17
10
11
1B
1%
1$
08
1C
#120000
1"
0!
02
14
03
1d
05
#140000
1!
12
13
1:!
1#!
0$!
07
00
1e
0D
0B
0$
0C
18
1D
1E
1C
0E
#160000
0"
0!
02
04
03
0d
15
#180000
1!
12
13
0:!
1$!
17
10
0e
1B
1$
08
0D
0C
1E
#200000
1#
1"
0!
02
14
16
03
1d
05
0$!
0#!
07
0n
01
00
0B
1D
0$
0%
18
1C
0C
0E
#220000
1!
12
13
#240000
0"
0!
02
04
03
0d
15
#260000
1!
12
13
#280000
1"
0!
02
14
03
1d
05
#300000
0#
1!
12
06
13
1:!
1$!
1n
11
1e
1B
1%
08
1C
#320000
0"
0!
02
04
03
0d
15
#340000
1!
12
13
0:!
1#!
0$!
17
10
0e
0D
0B
1$
0C
18
1D
1E
1C
0E
#360000
1"
0!
02
14
03
1d
05
#380000
1!
12
13
1:!
1$!
07
00
1e
1B
0$
08
0D
0C
1E
#400000
1#
0"
0!
02
04
16
03
0d
15
0$!
0#!
0:!
0n
01
0B
1D
0e
0%
18
1C
0C
0E
#420000
1!
12
13
#440000
1"
0!
02
14
03
1d
05
#460000
1!
12
13
#480000
0"
0!
02
04
03
0d
15
#500000
0#
1!
12
06
13
1$!
1n
17
10
11
1B
1%
1$
08
1C
#520000
1"
0!
02
14
03
1d
05
#540000
1!
12
13
1:!
1#!
0$!
07
00
1e
0D
0B
0$
0C
18
1D
1E
1C
0E
#560000
0"
0!
02
04
03
0d
15
#580000
1!
12
13
0:!
1$!
17
10
0e
1B
1$
08
0D
0C
1E
#600000
1#
1"
0!
02
14
16
03
1d
05
0$!
0#!
07
0n
01
00
0B
1D
0$
0%
18
1C
0C
0E
#620000
1!
12
13
#640000
0"
0!
02
04
03
0d
15
#660000
1!
12
13
#680000
1"
0!
02
14
03
1d
05
#700000
0#
1!
12
06
13
1:!
1$!
1n
11
1e
1B
1%
08
1C
#720000
0"
0!
02
04
03
0d
15
#740000
1!
12
13
0:!
1#!
0$!
17
10
0e
0D
0B
1$
0C
18
1D
1E
1C
0E
#760000
1"
0!
02
14
03
1d
05
#780000
1!
12
13
1:!
1$!
07
00
1e
1B
0$
08
0D
0C
1E
#800000
1#
0"
0!
02
04
16
03
0d
15
0$!
0#!
0:!
0n
01
0B
1D
0e
0%
18
1C
0C
0E
#820000
1!
12
13
#840000
1"
0!
02
14
03
1d
05
#860000
1!
12
13
#880000
0"
0!
02
04
03
0d
15
#900000
0#
1!
12
06
13
1$!
1n
17
10
11
1B
1%
1$
08
1C
#920000
1"
0!
02
14
03
1d
05
#940000
1!
12
13
1:!
1#!
0$!
07
00
1e
0D
0B
0$
0C
18
1D
1E
1C
0E
#960000
0"
0!
02
04
03
0d
15
#980000
1!
12
13
0:!
1$!
17
10
0e
1B
1$
08
0D
0C
1E
